%YAML 1.1
%TAG !u! tag:unity3d.com,2011:
--- !u!74 &7400000
AnimationClip:
  m_ObjectHideFlags: 0
  m_PrefabParentObject: {fileID: 0}
  m_PrefabInternal: {fileID: 0}
  m_Name: Puppy_Wagtail
  serializedVersion: 6
  m_Legacy: 0
  m_Compressed: 0
  m_UseHighQualityCurve: 1
  m_RotationCurves: []
  m_CompressedRotationCurves: []
  m_EulerCurves: []
  m_PositionCurves: []
  m_ScaleCurves: []
  m_FloatCurves: []
  m_PPtrCurves:
  - curve:
    - time: 0
      value: {fileID: 21300000, guid: dc22cb74ec0fa3e4aace6ea34d15eed8, type: 3}
    - time: 0.033333335
      value: {fileID: 21300000, guid: 4ba44d2db000d314ca29c562a925fa6f, type: 3}
    - time: 0.06666667
      value: {fileID: 21300000, guid: 0baecb751e3a7aa4c855c46341d9e4ba, type: 3}
    - time: 0.1
      value: {fileID: 21300000, guid: 048e211dcf260f54fb7451fa46684909, type: 3}
    - time: 0.13333334
      value: {fileID: 21300000, guid: 2641cc0a9c7b459468e7d1e7aa468c52, type: 3}
    - time: 0.16666667
      value: {fileID: 21300000, guid: bfde2696ad8fad74cb3c8cbd68404464, type: 3}
    - time: 0.2
      value: {fileID: 21300000, guid: fa647b9cfbf7c344c9881768ae263834, type: 3}
    - time: 0.23333333
      value: {fileID: 21300000, guid: af04cb40e984cf0498e64de47f059876, type: 3}
    - time: 0.26666668
      value: {fileID: 21300000, guid: 4505732ed70df884a890b0a022ec29ca, type: 3}
    - time: 0.3
      value: {fileID: 21300000, guid: f796b38ea1b46d64798ec3e09520f538, type: 3}
    - time: 0.33333334
      value: {fileID: 21300000, guid: 4adfb196e886cca468ac789c4cf615eb, type: 3}
    - time: 0.36666667
      value: {fileID: 21300000, guid: e4c5a030b62875b47aef5fc40d403e87, type: 3}
    - time: 0.4
      value: {fileID: 21300000, guid: dc22cb74ec0fa3e4aace6ea34d15eed8, type: 3}
    - time: 0.43333334
      value: {fileID: 21300000, guid: 85cdbffffeae3b44bbeb278cd39e4679, type: 3}
    - time: 0.46666667
      value: {fileID: 21300000, guid: 4c9894ee4483aac4dbc1c497d0a00c4d, type: 3}
    - time: 0.5
      value: {fileID: 21300000, guid: 26f1d7996b1efba448d55507c3bd8e51, type: 3}
    - time: 0.53333336
      value: {fileID: 21300000, guid: 42f0a3e22d0344c46b73646138ba8264, type: 3}
    - time: 0.56666666
      value: {fileID: 21300000, guid: 2dba8379c23ecc248be3f988242fcea0, type: 3}
    - time: 0.6
      value: {fileID: 21300000, guid: 9ce94aa5a25764a428b680a2008e3e58, type: 3}
    - time: 0.6333333
      value: {fileID: 21300000, guid: 783de1281ac795748b0c7db99bf22d53, type: 3}
    - time: 0.6666667
      value: {fileID: 21300000, guid: 8f23b0fba5be03f4b8898232823f83c6, type: 3}
    - time: 0.7
      value: {fileID: 21300000, guid: 3cf9bc780205b474f8259731c22be81c, type: 3}
    - time: 0.73333335
      value: {fileID: 21300000, guid: 2fa07b0120309834dab925d451f63705, type: 3}
    - time: 0.76666665
      value: {fileID: 21300000, guid: 1c83f4ea7dabe2645a32889866e9ef6a, type: 3}
    - time: 0.8
      value: {fileID: 21300000, guid: d75ef4b40b407ce44be09ff48cddce0d, type: 3}
    - time: 0.8333333
      value: {fileID: 21300000, guid: c93ea41c5a98bd0409b2b17aed4a92f5, type: 3}
    - time: 0.8666667
      value: {fileID: 21300000, guid: 705804285aed5df458c460e09fb296a2, type: 3}
    - time: 0.9
      value: {fileID: 21300000, guid: 8388e9f5b1604aa49848dd31f5581b0b, type: 3}
    - time: 0.93333334
      value: {fileID: 21300000, guid: c61ab1819ab70f042a79e57c2119a33b, type: 3}
    - time: 0.96666664
      value: {fileID: 21300000, guid: e434f0dd154220a44b7a1eb092ba0010, type: 3}
    attribute: m_Sprite
    path: 
    classID: 212
    script: {fileID: 0}
  m_SampleRate: 30
  m_WrapMode: 0
  m_Bounds:
    m_Center: {x: 0, y: 0, z: 0}
    m_Extent: {x: 0, y: 0, z: 0}
  m_ClipBindingConstant:
    genericBindings:
    - serializedVersion: 2
      path: 0
      attribute: 0
      script: {fileID: 0}
      typeID: 212
      customType: 23
      isPPtrCurve: 1
    pptrCurveMapping:
    - {fileID: 21300000, guid: dc22cb74ec0fa3e4aace6ea34d15eed8, type: 3}
    - {fileID: 21300000, guid: 4ba44d2db000d314ca29c562a925fa6f, type: 3}
    - {fileID: 21300000, guid: 0baecb751e3a7aa4c855c46341d9e4ba, type: 3}
    - {fileID: 21300000, guid: 048e211dcf260f54fb7451fa46684909, type: 3}
    - {fileID: 21300000, guid: 2641cc0a9c7b459468e7d1e7aa468c52, type: 3}
    - {fileID: 21300000, guid: bfde2696ad8fad74cb3c8cbd68404464, type: 3}
    - {fileID: 21300000, guid: fa647b9cfbf7c344c9881768ae263834, type: 3}
    - {fileID: 21300000, guid: af04cb40e984cf0498e64de47f059876, type: 3}
    - {fileID: 21300000, guid: 4505732ed70df884a890b0a022ec29ca, type: 3}
    - {fileID: 21300000, guid: f796b38ea1b46d64798ec3e09520f538, type: 3}
    - {fileID: 21300000, guid: 4adfb196e886cca468ac789c4cf615eb, type: 3}
    - {fileID: 21300000, guid: e4c5a030b62875b47aef5fc40d403e87, type: 3}
    - {fileID: 21300000, guid: dc22cb74ec0fa3e4aace6ea34d15eed8, type: 3}
    - {fileID: 21300000, guid: 85cdbffffeae3b44bbeb278cd39e4679, type: 3}
    - {fileID: 21300000, guid: 4c9894ee4483aac4dbc1c497d0a00c4d, type: 3}
    - {fileID: 21300000, guid: 26f1d7996b1efba448d55507c3bd8e51, type: 3}
    - {fileID: 21300000, guid: 42f0a3e22d0344c46b73646138ba8264, type: 3}
    - {fileID: 21300000, guid: 2dba8379c23ecc248be3f988242fcea0, type: 3}
    - {fileID: 21300000, guid: 9ce94aa5a25764a428b680a2008e3e58, type: 3}
    - {fileID: 21300000, guid: 783de1281ac795748b0c7db99bf22d53, type: 3}
    - {fileID: 21300000, guid: 8f23b0fba5be03f4b8898232823f83c6, type: 3}
    - {fileID: 21300000, guid: 3cf9bc780205b474f8259731c22be81c, type: 3}
    - {fileID: 21300000, guid: 2fa07b0120309834dab925d451f63705, type: 3}
    - {fileID: 21300000, guid: 1c83f4ea7dabe2645a32889866e9ef6a, type: 3}
    - {fileID: 21300000, guid: d75ef4b40b407ce44be09ff48cddce0d, type: 3}
    - {fileID: 21300000, guid: c93ea41c5a98bd0409b2b17aed4a92f5, type: 3}
    - {fileID: 21300000, guid: 705804285aed5df458c460e09fb296a2, type: 3}
    - {fileID: 21300000, guid: 8388e9f5b1604aa49848dd31f5581b0b, type: 3}
    - {fileID: 21300000, guid: c61ab1819ab70f042a79e57c2119a33b, type: 3}
    - {fileID: 21300000, guid: e434f0dd154220a44b7a1eb092ba0010, type: 3}
  m_AnimationClipSettings:
    serializedVersion: 2
    m_AdditiveReferencePoseClip: {fileID: 0}
    m_AdditiveReferencePoseTime: 0
    m_StartTime: 0
    m_StopTime: 1
    m_OrientationOffsetY: 0
    m_Level: 0
    m_CycleOffset: 0
    m_HasAdditiveReferencePose: 0
    m_LoopTime: 0
    m_LoopBlend: 0
    m_LoopBlendOrientation: 0
    m_LoopBlendPositionY: 0
    m_LoopBlendPositionXZ: 0
    m_KeepOriginalOrientation: 0
    m_KeepOriginalPositionY: 1
    m_KeepOriginalPositionXZ: 0
    m_HeightFromFeet: 0
    m_Mirror: 0
  m_EditorCurves: []
  m_EulerEditorCurves: []
  m_HasGenericRootTransform: 0
  m_HasMotionFloatCurves: 0
  m_GenerateMotionCurves: 0
  m_Events:
  - time: 0
    functionName: OnActionSoundStarted
    data: wagtail
    objectReferenceParameter: {fileID: 0}
    floatParameter: 0
    intParameter: 0
    messageOptions: 0
  - time: 0.96666664
    functionName: OnActionSoundFinished
    data: wagtail
    objectReferenceParameter: {fileID: 0}
    floatParameter: 0
    intParameter: 0
    messageOptions: 0
